variable,Score,RDA1,RDA2
count1_log,species,0.059645670985865484,-0.8514708722214143
count2_log,species,-0.7984583321357521,0.20368654164804706
start1_day,species,1.2597540415528803,-0.7138453768798197
start2_day,species,0.9592129132091184,1.191321334719936
duration1_days,species,-1.411867063774782,0.8374795220233718
duration2_days,species,-0.8718585848597105,-1.321739938204249
count2p_log,biplot,0.19507204018219476,0.13095305230970897
start2p_day,biplot,0.05228631314761387,0.039747906435111106
duration2p_days,biplot,-0.13469009157482756,0.14677438155629483
maxtemp_f_Apr_t_May,biplot,-0.08273211826654867,-0.17138491159778949
maxtemp_f_Feb_t_Mar,biplot,0.03416312984884353,-0.10874812249445907
maxtemp_f_Jan_t_Feb,biplot,-0.20284444962041523,-0.07798450872206324
maxtemp_f_Jul_t_Aug,biplot,0.13033441571074955,-0.03978128778104796
maxtemp_f_Jun_t_Jul,biplot,0.0720297424010972,-0.13113243448380082
maxtemp_f_Mar_t_Apr,biplot,0.040170744292275226,0.025300766954326096
maxtemp_f_May_t_Jun,biplot,-0.17245625742485157,-0.24025205678967632
maxtemp_f_pDec_t_Jan,biplot,0.05378110379488927,0.18364910203589765
maxtemp_f_pNov_t_pDec,biplot,-0.10222897612205639,0.15147217401208887
maxtemp_f_pOct_t_pNov,biplot,0.22191842729420683,-0.12104634996217166
maxtemp_f_pSep_t_pOct,biplot,-0.06580552401787654,-0.26892396780417877
meanprecipsum_f_Apr_t_May,biplot,0.03579071303076493,-0.0935771702161139
meanprecipsum_f_Feb_t_Mar,biplot,-0.15653430016228626,0.11404044303211977
meanprecipsum_f_Jan_t_Feb,biplot,0.06720830119754957,-0.0987294324784563
meanprecipsum_f_Jul_t_Aug,biplot,-0.011310213804737974,0.3003106913919298
meanprecipsum_f_Jun_t_Jul,biplot,-0.206799941246367,0.12907007856952024
meanprecipsum_f_Mar_t_Apr,biplot,-0.1621465884385398,0.251990633596438
meanprecipsum_f_May_t_Jun,biplot,0.04623523280994526,-0.1656971323289984
meanprecipsum_f_pDec_t_Jan,biplot,0.21115754957806301,-0.03675938235278871
meanprecipsum_f_pNov_t_pDec,biplot,0.024844184751015467,0.12855344180745173
meanprecipsum_f_pOct_t_pNov,biplot,-0.04893844006583817,-0.03309130755547835
meanprecipsum_f_pSep_t_pOct,biplot,0.03569076119918814,-0.11605863185565998
meantemp_f_Apr_t_May,biplot,-0.06463174814072,0.06458307914328851
meantemp_f_Feb_t_Mar,biplot,-0.26546303013308054,0.0911667260753643
meantemp_f_Jan_t_Feb,biplot,-0.24956912105984821,-0.011632507120026926
meantemp_f_Jul_t_Aug,biplot,0.3007585863437722,0.0691481888890453
meantemp_f_Jun_t_Jul,biplot,0.20506935656163,-0.09601363085486628
meantemp_f_Mar_t_Apr,biplot,-0.11217697833824164,0.09453229424527122
meantemp_f_May_t_Jun,biplot,0.08534900562739328,-0.036264931677741
meantemp_f_pDec_t_Jan,biplot,-0.08823165110369588,-0.07054701506960417
meantemp_f_pNov_t_pDec,biplot,-0.025923357910508336,0.10245374351627971
meantemp_f_pOct_t_pNov,biplot,0.08830067704966646,0.35878506846876357
meantemp_f_pSep_t_pOct,biplot,0.0954416775460226,0.13480820109768973
mintemp_f_Apr_t_May,biplot,-0.1755280323290418,0.25999577437281646
mintemp_f_Feb_t_Mar,biplot,-0.2598733528615537,0.04858728656556701
mintemp_f_Jan_t_Feb,biplot,-0.1654483505860459,0.01989964030780791
mintemp_f_Jul_t_Aug,biplot,0.12839124773933594,-0.036117436691048714
mintemp_f_Jun_t_Jul,biplot,0.08561413621835431,0.0022314503562558988
mintemp_f_Mar_t_Apr,biplot,-0.1633331802504855,0.228253434794067
mintemp_f_May_t_Jun,biplot,0.07872119875710629,0.08275407167765024
mintemp_f_pDec_t_Jan,biplot,-0.12563886288840323,-0.07935769234799728
mintemp_f_pNov_t_pDec,biplot,-0.2170738149730365,-0.09582141616689595
mintemp_f_pOct_t_pNov,biplot,0.15522631915511767,0.13808235089121196
mintemp_f_pSep_t_pOct,biplot,0.0814940520557128,0.2694261789069949
wind_f_Apr_t_May,biplot,0.0587034108637239,0.048107721114137345
wind_f_Feb_t_Mar,biplot,-0.030237353668035476,-0.047864325963819156
wind_f_Jan_t_Feb,biplot,0.0740926283287119,-0.14031531855906115
wind_f_Jul_t_Aug,biplot,0.05318825563851393,0.12139275965523039
wind_f_Jun_t_Jul,biplot,-0.006996230753555963,0.2607207475030526
wind_f_Mar_t_Apr,biplot,0.053369587760332536,-0.015441901742400952
wind_f_May_t_Jun,biplot,0.02897600055261466,0.14941234707476522
wind_f_pDec_t_Jan,biplot,0.0722313803525463,-0.11844827793873894
wind_f_pNov_t_pDec,biplot,-0.06732101158430823,-0.06426424406527337
wind_f_pOct_t_pNov,biplot,-0.07882268601294343,-0.14283389962346602
wind_f_pSep_t_pOct,biplot,-0.17407195169712858,-0.15658665581488262
